{
  "photos": {
    "page": 1,
    "pages": 325,
    "perpage": 10,
    "total": "3244",
    "photo": [{
      "id": "14957170212",
      "owner": "66667715@N07",
      "secret": "30fbfc908e",
      "server": "5589",
      "farm": 6,
      "title": "A caxixi instrument made on Igor\u2019s workshop.",
      "ispublic": 1,
      "isfriend": 0,
      "isfamily": 0,
      "url_z": "https:\/\/farm6.staticflickr.com\/5589\/14957170212_30fbfc908e_z.jpg",
      "height_z": "640",
      "width_z": "480",
      "url_l": "https:\/\/farm6.staticflickr.com\/5589\/14957170212_30fbfc908e_b.jpg",
      "height_l": "1024",
      "width_l": "768"
    }, {
      "id": "14919500395",
      "owner": "66667715@N07",
      "secret": "5cd3f953bb",
      "server": "5588",
      "farm": 6,
      "title": "African dance, final performance.",
      "ispublic": 1,
      "isfriend": 0,
      "isfamily": 0,
      "url_z": "https:\/\/farm6.staticflickr.com\/5588\/14919500395_5cd3f953bb_z.jpg",
      "height_z": 360,
      "width_z": "640",
      "url_l": "https:\/\/farm6.staticflickr.com\/5588\/14919500395_5cd3f953bb_b.jpg",
      "height_l": "576",
      "width_l": "1024"
    }, {
      "id": "14896234436",
      "owner": "66667715@N07",
      "secret": "07a601db85",
      "server": "5557",
      "farm": 6,
      "title": "Final children circus performance.",
      "ispublic": 1,
      "isfriend": 0,
      "isfamily": 0,
      "url_z": "https:\/\/farm6.staticflickr.com\/5557\/14896234436_07a601db85_z.jpg",
      "height_z": 360,
      "width_z": "640",
      "url_l": "https:\/\/farm6.staticflickr.com\/5557\/14896234436_07a601db85_b.jpg",
      "height_l": "576",
      "width_l": "1024"
    }, {
      "id": "14895615616",
      "owner": "66667715@N07",
      "secret": "49d57c5c94",
      "server": "3887",
      "farm": 4,
      "title": "A play by attendees of the Croatian language workshop.",
      "ispublic": 1,
      "isfriend": 0,
      "isfamily": 0,
      "url_z": "https:\/\/farm4.staticflickr.com\/3887\/14895615616_49d57c5c94_z.jpg",
      "height_z": 360,
      "width_z": "640",
      "url_l": "https:\/\/farm4.staticflickr.com\/3887\/14895615616_49d57c5c94_b.jpg",
      "height_l": "576",
      "width_l": "1024"
    }, {
      "id": "14728445927",
      "owner": "66667715@N07",
      "secret": "38ddcf8fde",
      "server": "3908",
      "farm": 4,
      "title": "Vijeka is really tall this year!",
      "ispublic": 1,
      "isfriend": 0,
      "isfamily": 0,
      "url_z": "https:\/\/farm4.staticflickr.com\/3908\/14728445927_38ddcf8fde_z.jpg",
      "height_z": "640",
      "width_z": 360,
      "url_l": "https:\/\/farm4.staticflickr.com\/3908\/14728445927_38ddcf8fde_b.jpg",
      "height_l": "1024",
      "width_l": "576"
    }, {
      "id": "14868479422",
      "owner": "66667715@N07",
      "secret": "f13905de10",
      "server": "3912",
      "farm": 4,
      "title": "Bridge.",
      "ispublic": 1,
      "isfriend": 0,
      "isfamily": 0,
      "url_z": "https:\/\/farm4.staticflickr.com\/3912\/14868479422_f13905de10_z.jpg",
      "height_z": "480",
      "width_z": "640",
      "url_l": "https:\/\/farm4.staticflickr.com\/3912\/14868479422_f13905de10_b.jpg",
      "height_l": "768",
      "width_l": "1024"
    }, {
      "id": "14864623604",
      "owner": "66667715@N07",
      "secret": "4846427fcd",
      "server": "5558",
      "farm": 6,
      "title": "A house made by Igor and the children on his workshop.",
      "ispublic": 1,
      "isfriend": 0,
      "isfamily": 0,
      "url_z": "https:\/\/farm6.staticflickr.com\/5558\/14864623604_4846427fcd_z.jpg",
      "height_z": "640",
      "width_z": "480",
      "url_l": "https:\/\/farm6.staticflickr.com\/5558\/14864623604_4846427fcd_b.jpg",
      "height_l": "1024",
      "width_l": "768"
    }, {
      "id": "14866722012",
      "owner": "66667715@N07",
      "secret": "8b5cb52a6e",
      "server": "3910",
      "farm": 4,
      "title": "Daniel slacklining backwards.",
      "ispublic": 1,
      "isfriend": 0,
      "isfamily": 0,
      "url_z": "https:\/\/farm4.staticflickr.com\/3910\/14866722012_8b5cb52a6e_z.jpg",
      "height_z": "640",
      "width_z": 360,
      "url_l": "https:\/\/farm4.staticflickr.com\/3910\/14866722012_8b5cb52a6e_b.jpg",
      "height_l": "1024",
      "width_l": "576"
    }, {
      "id": "14667581277",
      "owner": "66667715@N07",
      "secret": "273fb66cbc",
      "server": "3846",
      "farm": 4,
      "title": "Traditional food from various countries from our national evenings.",
      "ispublic": 1,
      "isfriend": 0,
      "isfamily": 0,
      "url_z": "https:\/\/farm4.staticflickr.com\/3846\/14667581277_273fb66cbc_z.jpg",
      "height_z": "640",
      "width_z": "480",
      "url_l": "https:\/\/farm4.staticflickr.com\/3846\/14667581277_273fb66cbc_b.jpg",
      "height_l": "1024",
      "width_l": "768"
    }, {
      "id": "14657741760",
      "owner": "66667715@N07",
      "secret": "8917a754fd",
      "server": "3846",
      "farm": 4,
      "title": "For now, hay targets, next time apples :)",
      "ispublic": 1,
      "isfriend": 0,
      "isfamily": 0,
      "url_z": "https:\/\/farm4.staticflickr.com\/3846\/14657741760_8917a754fd_z.jpg",
      "height_z": "640",
      "width_z": "480",
      "url_l": "https:\/\/farm4.staticflickr.com\/3846\/14657741760_8917a754fd_b.jpg",
      "height_l": "1024",
      "width_l": "768"
    }]
  },
  "stat": "ok"
}
